…
We can look at the apt_buildings dataset, given that there are \>8
variables, we will `select` 8 variables to examine. The 8 variables are:
id, air_conditioning, balconies, exterior_fire_escape, fire_alarm,
garbage_chutes, laundry_room, no_of_elevators.

``` r
tidy_apt_buildings <- apt_buildings %>% 
                          select(id, air_conditioning, balconies, exterior_fire_escape, fire_alarm, garbage_chutes, laundry_room, no_of_elevators) %>%
     filter(!is.na(balconies))

print(tidy_apt_buildings)
```

    ## # A tibble: 3,367 × 8
    ##       id air_conditioning balconies exterior_fire_escape fire_alarm garbage_chutes
    ##    <dbl> <chr>            <chr>     <chr>                <chr>      <chr>         
    ##  1 10359 NONE             YES       NO                   YES        YES           
    ##  2 10360 NONE             YES       NO                   YES        YES           
    ##  3 10361 NONE             YES       NO                   YES        NO            
    ##  4 10362 NONE             YES       YES                  YES        NO            
    ##  5 10363 NONE             NO        NO                   YES        NO            
    ##  6 10364 NONE             NO        <NA>                 YES        NO            
    ##  7 10365 NONE             NO        NO                   YES        NO            
    ##  8 10366 CENTRAL AIR      YES       NO                   YES        YES           
    ##  9 10367 NONE             YES       NO                   YES        YES           
    ## 10 10368 NONE             YES       NO                   YES        NO            
    ## # … with 3,357 more rows, and 2 more variables: laundry_room <chr>,
    ## #   no_of_elevators <dbl>
…
<!--------------------------- Start your work below --------------------------->

Since our dataset is tidy, we will be using the `pivot_wider` function
to untidy the data. This will widen the dataset and have a separate
column for each observation of the balconies variable (YES, NO), this
column will take show the values of the no_of_elevators.

``` r
untidy_apt_buildings <- tidy_apt_buildings %>% 
                      pivot_wider(names_from = balconies,
                                  values_from = no_of_elevators)
print(untidy_apt_buildings)
```

    ## # A tibble: 3,367 × 8
    ##       id air_conditioning exterior_fire_escape fire_alarm garbage_chutes
    ##    <dbl> <chr>            <chr>                <chr>      <chr>         
    ##  1 10359 NONE             NO                   YES        YES           
    ##  2 10360 NONE             NO                   YES        YES           
    ##  3 10361 NONE             NO                   YES        NO            
    ##  4 10362 NONE             YES                  YES        NO            
    ##  5 10363 NONE             NO                   YES        NO            
    ##  6 10364 NONE             <NA>                 YES        NO            
    ##  7 10365 NONE             NO                   YES        NO            
    ##  8 10366 CENTRAL AIR      NO                   YES        YES           
    ##  9 10367 NONE             NO                   YES        YES           
    ## 10 10368 NONE             NO                   YES        NO            
    ## # … with 3,357 more rows, and 3 more variables: laundry_room <chr>, YES <dbl>,
    ## #   NO <dbl>

We can use the `pivot_longer` function to retidy the data and make it
look like our original tidy_apt_buildings dataset. Using the print
function, we can compare the two datasets and see that they are the
same.

``` r
new_tidy_apt_buildings <- untidy_apt_buildings %>%
                      pivot_longer(cols = c(YES, NO),
                                           names_to = "balconies",
                                           values_to = "no_of_elevators") 
print(new_tidy_apt_buildings)
```

    ## # A tibble: 6,734 × 8
    ##       id air_conditioning exterior_fire_escape fire_alarm garbage_chutes
    ##    <dbl> <chr>            <chr>                <chr>      <chr>         
    ##  1 10359 NONE             NO                   YES        YES           
    ##  2 10359 NONE             NO                   YES        YES           
    ##  3 10360 NONE             NO                   YES        YES           
    ##  4 10360 NONE             NO                   YES        YES           
    ##  5 10361 NONE             NO                   YES        NO            
    ##  6 10361 NONE             NO                   YES        NO            
    ##  7 10362 NONE             YES                  YES        NO            
    ##  8 10362 NONE             YES                  YES        NO            
    ##  9 10363 NONE             NO                   YES        NO            
    ## 10 10363 NONE             NO                   YES        NO            
    ## # … with 6,724 more rows, and 3 more variables: laundry_room <chr>,
    ## #   balconies <chr>, no_of_elevators <dbl>

``` r
print(tidy_apt_buildings)
```

    ## # A tibble: 3,367 × 8
    ##       id air_conditioning balconies exterior_fire_escape fire_alarm garbage_chutes
    ##    <dbl> <chr>            <chr>     <chr>                <chr>      <chr>         
    ##  1 10359 NONE             YES       NO                   YES        YES           
    ##  2 10360 NONE             YES       NO                   YES        YES           
    ##  3 10361 NONE             YES       NO                   YES        NO            
    ##  4 10362 NONE             YES       YES                  YES        NO            
    ##  5 10363 NONE             NO        NO                   YES        NO            
    ##  6 10364 NONE             NO        <NA>                 YES        NO            
    ##  7 10365 NONE             NO        NO                   YES        NO            
    ##  8 10366 CENTRAL AIR      YES       NO                   YES        YES           
    ##  9 10367 NONE             YES       NO                   YES        YES           
    ## 10 10368 NONE             YES       NO                   YES        NO            
    ## # … with 3,357 more rows, and 2 more variables: laundry_room <chr>,
    ## #   no_of_elevators <dbl>
…
``` r
New_Apt_Data <- apt_buildings %>% 
  select(year_built, pets_allowed, property_type, no_of_storeys, no_of_units) %>%
   filter(!is.na(pets_allowed) & !is.na(property_type) & !is.na(no_of_storeys) &!is.na(no_of_units)) %>%
  mutate(apt_age=2022-year_built)

print(New_Apt_Data)
```

    ## # A tibble: 3,365 × 6
    ##    year_built pets_allowed property_type no_of_storeys no_of_units apt_age
    ##         <dbl> <chr>        <chr>                 <dbl>       <dbl>   <dbl>
    ##  1       1967 YES          PRIVATE                  17         218      55
    ##  2       1970 YES          PRIVATE                  14         206      52
    ##  3       1927 YES          PRIVATE                   4          34      95
    ##  4       1959 YES          PRIVATE                   5          42      63
    ##  5       1943 YES          PRIVATE                   4          25      79
    ##  6       1952 YES          PRIVATE                   4          34      70
    ##  7       1959 YES          PRIVATE                   4          14      63
    ##  8       1971 YES          PRIVATE                   7         105      51
    ##  9       1969 YES          PRIVATE                  32         571      53
    ## 10       1972 YES          TCHC                      4         171      50
    ## # … with 3,355 more rows
…
``` r
New_Apt_Data_Units_Ptp <- New_Apt_Data %>%
   mutate(property_type = fct_reorder(property_type, no_of_units))
   
print(New_Apt_Data_Units_Ptp)
```

    ## # A tibble: 3,365 × 6
    ##    year_built pets_allowed property_type no_of_storeys no_of_units apt_age
    ##         <dbl> <chr>        <fct>                 <dbl>       <dbl>   <dbl>
    ##  1       1967 YES          PRIVATE                  17         218      55
    ##  2       1970 YES          PRIVATE                  14         206      52
    ##  3       1927 YES          PRIVATE                   4          34      95
    ##  4       1959 YES          PRIVATE                   5          42      63
    ##  5       1943 YES          PRIVATE                   4          25      79
    ##  6       1952 YES          PRIVATE                   4          34      70
    ##  7       1959 YES          PRIVATE                   4          14      63
    ##  8       1971 YES          PRIVATE                   7         105      51
    ##  9       1969 YES          PRIVATE                  32         571      53
    ## 10       1972 YES          TCHC                      4         171      50
    ## # … with 3,355 more rows
…
We can use the `fct_lump_n` function to group the property types besides
*Private*. We can do this by including `1` (which specifies that we only
want the 1st most frequent property type) following the appropriate
column name (*property_type*). This simplifies our plot as the *Private*
property type took up most of the apartments.

``` r
New_Apt_Data_Othr_Ptp <- New_Apt_Data %>%
  #create a new column which has the new groupings of either Private or Other
    mutate(property_other = fct_lump_n(property_type, 1))
print(New_Apt_Data_Othr_Ptp)
```

    ## # A tibble: 3,365 × 7
    ##    year_built pets_allowed property_type no_of_storeys no_of_units apt_age
    ##         <dbl> <chr>        <chr>                 <dbl>       <dbl>   <dbl>
    ##  1       1967 YES          PRIVATE                  17         218      55
    ##  2       1970 YES          PRIVATE                  14         206      52
    ##  3       1927 YES          PRIVATE                   4          34      95
    ##  4       1959 YES          PRIVATE                   5          42      63
    ##  5       1943 YES          PRIVATE                   4          25      79
    ##  6       1952 YES          PRIVATE                   4          34      70
    ##  7       1959 YES          PRIVATE                   4          14      63
    ##  8       1971 YES          PRIVATE                   7         105      51
    ##  9       1969 YES          PRIVATE                  32         571      53
    ## 10       1972 YES          TCHC                      4         171      50
    ## # … with 3,355 more rows, and 1 more variable: property_other <fct>
…
